HDI impact on suicides
…
suicide_rates_hdi <- suicides_clean %>%
  filter(!is.na(hdi)) %>%
  group_by(country) %>%
  summarise(suicide_rates = mean(suicides_per_100k_pop), mean_hdi = mean(hdi)) %>% 
  arrange(desc(suicide_rates))

## `summarise()` ungrouping output (override with `.groups` argument)

suicide_rates_hdi

## # A tibble: 90 x 3
##    country    suicide_rates mean_hdi
##    <chr>              <dbl>    <dbl>
##  1 Sri Lanka           41.1    0.638
##  2 Lithuania           38.7    0.804
##  3 Suriname            29.0    0.708
##  4 Hungary             28.6    0.804
##  5 Kazakhstan          27.9    0.741
##  6 Latvia              27.3    0.784
##  7 Belarus             26.7    0.771
##  8 Guyana              26.2    0.608
##  9 Slovenia            25.9    0.856
## 10 Ukraine             25.1    0.714
## #  with 80 more rows
…
